…
    ## Joining, by = c("month", "year")

``` r
harbor_data_2017 = inner_join(mr_trash_wheel, precipm_2017)
```

    ## Joining, by = c("month", "year")

``` r
rename(harbor_data_2016, total_precip = total)
```

    ## # A tibble: 51 x 15
    ##    dumpster month  year date                weight_tons volume_cubic_ya…
    ##       <dbl> <chr> <dbl> <dttm>                    <dbl>            <dbl>
    ##  1      116 Janu…  2016 2016-01-10 00:00:00        3.6                15
    ##  2      117 Febr…  2016 2016-02-02 00:00:00        4.06               18
    ##  3      118 Febr…  2016 2016-02-03 00:00:00        2.11               15
    ##  4      119 Febr…  2016 2016-02-05 00:00:00        3.01               15
    ##  5      120 Febr…  2016 2016-02-17 00:00:00        3.41               18
    ##  6      121 Febr…  2016 2016-02-19 00:00:00        3.66               15
    ##  7      122 Febr…  2016 2016-02-25 00:00:00        4.51               15
    ##  8      123 March  2016 2016-03-01 00:00:00        2.89               18
    ##  9      124 March  2016 2016-03-11 00:00:00        2.89               15
    ## 10      125 March  2016 2016-03-12 00:00:00        2.51               15
    ## # ... with 41 more rows, and 9 more variables: plastic_bottles <dbl>,
    ## #   polystyrene <dbl>, cigarette_butts <dbl>, glass_bottles <dbl>,
    ## #   grocery_bags <dbl>, chip_bags <dbl>, homes_powered <dbl>,
    ## #   sports_ball_count <int>, total_precip <dbl>

``` r
rename(harbor_data_2017, total_precip = total)
```

    ## # A tibble: 55 x 15
    ##    dumpster month  year date                weight_tons volume_cubic_ya…
    ##       <dbl> <chr> <dbl> <dttm>                    <dbl>            <dbl>
    ##  1      167 Janu…  2017 2017-01-19 00:00:00        2.43               15
    ##  2      168 Febr…  2017 2017-02-26 00:00:00        2.32               18
    ##  3      169 Febr…  2017 2017-02-26 00:00:00        3.72               15
    ##  4      170 March  2017 2017-03-30 00:00:00        2.14               15
    ##  5      171 March  2017 2017-03-31 00:00:00        2.74               18
    ##  6      172 March  2017 2017-03-31 00:00:00        2.63               15
    ##  7      173 March  2017 2017-03-31 00:00:00        2.09               15
    ##  8      174 April  2017 2017-04-01 00:00:00        2.67               18
    ##  9      175 April  2017 2017-04-01 00:00:00        2.67               18
    ## 10      176 April  2017 2017-04-06 00:00:00        3.55               15
    ## # ... with 45 more rows, and 9 more variables: plastic_bottles <dbl>,
    ## #   polystyrene <dbl>, cigarette_butts <dbl>, glass_bottles <dbl>,
    ## #   grocery_bags <dbl>, chip_bags <dbl>, homes_powered <dbl>,
    ## #   sports_ball_count <int>, total_precip <dbl>
…
### Now we are interested in the following questions/actions:

How many unique locations are included in the dataset? Is every state
represented? What state is observed the most?

``` r
brfss_clean %>% 
  distinct(locationdesc, .keep_all = TRUE) 
```

    ## # A tibble: 404 x 9
    ##     year locationabbr locationdesc excellent  fair  good  poor very_good
    ##    <int> <chr>        <chr>            <dbl> <dbl> <dbl> <dbl>     <dbl>
    ##  1  2002 AK           AK - Anchor…      27.9   8.6  23.8   5.9      33.7
    ##  2  2002 AL           AL - Jeffer…      18.5  12.1  32.7   5.9      30.9
    ##  3  2002 AR           AR - Pulask…      24.1  12.5  29.9   4.2      29.3
    ##  4  2002 AZ           AZ - Marico…      21.6  10.3  26.9   4.6      36.6
    ##  5  2002 AZ           AZ - Pima C…      26.6   7.5  31.9   3.9      30.1
    ##  6  2002 CA           CA - Los An…      22.7  14.3  28.7   4.5      29.8
    ##  7  2002 CO           CO - Adams …      21.2  14.4  29     4.2      31.2
    ##  8  2002 CO           CO - Arapah…      25.5   8    29.3   2.1      35.2
    ##  9  2002 CO           CO - Denver…      22.2  11.1  36.6   3        27.1
    ## 10  2002 CO           CO - Jeffer…      23.4  11.4  26.3   2.4      36.6
    ## # ... with 394 more rows, and 1 more variable: excell_vgood <dbl>

``` r
brfss_clean %>% 
  distinct(locationdesc, .keep_all = TRUE) %>% 
  distinct(locationabbr, .keep_all = TRUE)
```

    ## # A tibble: 51 x 9
    ##     year locationabbr locationdesc excellent  fair  good  poor very_good
    ##    <int> <chr>        <chr>            <dbl> <dbl> <dbl> <dbl>     <dbl>
    ##  1  2002 AK           AK - Anchor…      27.9   8.6  23.8   5.9      33.7
    ##  2  2002 AL           AL - Jeffer…      18.5  12.1  32.7   5.9      30.9
    ##  3  2002 AR           AR - Pulask…      24.1  12.5  29.9   4.2      29.3
    ##  4  2002 AZ           AZ - Marico…      21.6  10.3  26.9   4.6      36.6
    ##  5  2002 CA           CA - Los An…      22.7  14.3  28.7   4.5      29.8
    ##  6  2002 CO           CO - Adams …      21.2  14.4  29     4.2      31.2
    ##  7  2002 CT           CT - Fairfi…      31.9   8.4  22.7   2.5      34.5
    ##  8  2002 DC           DC - Distri…      29.3   8.3  28.1   2.4      31.8
    ##  9  2002 DE           DE - Kent C…      20.2  11    32.5   3.7      32.7
    ## 10  2002 FL           FL - Browar…      25.7   7.7  31     3.8      31.7
    ## # ... with 41 more rows, and 1 more variable: excell_vgood <dbl>

``` r
brfss_clean %>% 
  distinct(locationdesc, .keep_all = TRUE) %>% 
  group_by(locationabbr) %>% 
  count(locationabbr)
```

    ## # A tibble: 51 x 2
    ## # Groups:   locationabbr [51]
    ##    locationabbr     n
    ##    <chr>        <int>
    ##  1 AK               2
    ##  2 AL               4
    ##  3 AR               3
    ##  4 AZ               6
    ##  5 CA              12
    ##  6 CO              10
    ##  7 CT               7
    ##  8 DC               1
    ##  9 DE               3
    ## 10 FL              44
    ## # ... with 41 more rows
…
